{
    "name": "Crazy Internet Speed Meter",
    "description": "Simple and minimal internet speed meter extension for the Gnome Shell",
    "uuid": "CrazyInternetSpeedMeter@larryw3i_at_163.com",
    "url": "https://gitlab.gnome.org/larryw3i/Crazy1nternetSpeedMeter.git",
    "version-name": "20240821.020036",
    "shell-version": ["45", "46"],
    "gettext-domain": "CrazyInternetSpeedMeter@larryw3i_at_163.com",
    "settings-schema": "org.gnome.shell.extensions.CrazyInternetSpeedMeter"
}
